…
```r
bot_txns_compiled %>%
    filter(transaction_date >= date("2020-07-01"), transaction_date <= date("2020-12-31")) %>% 
    arrange(bot_name, key_type, transaction_date) %>%
    group_by(bot_name, key_type) %>%
    top_n(1) %>% 
    arrange(desc(price))
```

```
## Selecting by price
```

```
## # A tibble: 31 x 4
## # Groups:   bot_name, key_type [22]
##    bot_name key_type transaction_date    price
##    <fct>    <fct>    <dttm>              <dbl>
##  1 wrath    lifetime 2020-10-17 03:07:48  8990
##  2 cyber    lifetime 2020-10-17 14:20:08  8700
##  3 wrath    renewal  2020-10-13 14:46:37  7777
##  4 cyber    renewal  2020-09-12 22:23:33  6600
##  5 cyber    renewal  2020-10-13 15:30:27  6600
##  6 prism    renewal  2020-09-10 12:55:57  5000
##  7 prism    renewal  2020-09-10 16:30:36  5000
##  8 prism    renewal  2020-09-12 16:37:05  5000
##  9 prism    renewal  2020-09-12 16:51:17  5000
## 10 nebula   lifetime 2020-10-21 04:01:36  4500
## # ... with 21 more rows
```
…
```
## Warning in is.na(e1) | is.na(e2): longer object length is not a multiple of
## shorter object length
```

```r
bots_decline_plot_renewal
```

```
## # A tibble: 1,935 x 4
## # Groups:   bot_name [3]
##    bot_name key_type transaction_date    price
##    <fct>    <fct>    <dttm>              <dbl>
##  1 balko    renewal  2020-01-02 02:20:45  1650
##  2 balko    renewal  2020-01-02 10:09:59  2000
##  3 balko    renewal  2020-01-03 23:28:00  1950
##  4 balko    renewal  2020-01-05 02:14:59  1615
##  5 balko    renewal  2020-01-05 17:54:29  1625
##  6 balko    renewal  2020-01-07 02:08:40  1510
##  7 balko    renewal  2020-01-08 04:41:49  1900
##  8 balko    renewal  2020-01-08 23:23:02  1760
##  9 balko    renewal  2020-01-09 17:33:14  1575
## 10 balko    renewal  2020-01-10 10:08:54  1930
## # ... with 1,925 more rows
```
…
```
## Warning in is.na(e1) | is.na(e2): longer object length is not a multiple of
## shorter object length
```

```r
bots_decline_plot_renewal_2021
```

```
## # A tibble: 549 x 4
## # Groups:   bot_name [3]
##    bot_name key_type transaction_date    price
##    <fct>    <fct>    <dttm>              <dbl>
##  1 balko    renewal  2021-01-01 04:30:28  2180
##  2 balko    renewal  2021-01-01 17:09:13  2100
##  3 balko    renewal  2021-01-02 15:55:57  1850
##  4 balko    renewal  2021-01-03 01:49:25  1750
##  5 balko    renewal  2021-01-03 02:42:07  1700
##  6 balko    renewal  2021-01-04 03:49:27  2030
##  7 balko    renewal  2021-01-05 01:17:06  2300
##  8 balko    renewal  2021-01-06 20:27:14  2350
##  9 balko    renewal  2021-01-08 17:14:50  1900
## 10 balko    renewal  2021-01-08 22:59:17  2140
## # ... with 539 more rows
```
…
